<?xml version="1.0" encoding="utf-8"?>
<!-- Generator: Adobe Illustrator 16.0.0, SVG Export Plug-In . SVG Version: 6.00 Build 0)  -->
<!DOCTYPE svg PUBLIC "-//W3C//DTD SVG 1.1//EN" "http://www.w3.org/Graphics/SVG/1.1/DTD/svg11.dtd">
<svg version="1.1" id="Layer_1" xmlns="http://www.w3.org/2000/svg" xmlns:xlink="http://www.w3.org/1999/xlink" x="0px" y="0px"
	 width="16px" height="16px" viewBox="0 0 16 16" enable-background="new 0 0 16 16" xml:space="preserve">
<g>
	<g>
		
			<linearGradient id="SVGID_1_" gradientUnits="userSpaceOnUse" x1="7.9995" y1="9" x2="7.9995" y2="17" gradientTransform="matrix(1 0 0 -1 0 17)">
			<stop  offset="0" style="stop-color:#FA5E5A"/>
			<stop  offset="1" style="stop-color:#FF8800"/>
		</linearGradient>
		<path fill="url(#SVGID_1_)" d="M8,0C3.582,0,0,3.582,0,8h16C16,3.582,12.418,0,8,0z"/>
		<path fill="#CF5278" d="M0.085,9c0.072,0.574,0.185,1.137,0.372,1.667h15.086c0.188-0.53,0.3-1.093,0.372-1.667H0.085z M8,16
			c1.837,0,3.523-0.625,4.874-1.666H3.126C4.476,15.375,6.163,16,8,16z M2.039,13.333h11.922c0.446-0.498,0.806-1.067,1.116-1.666
			H0.922C1.233,12.266,1.593,12.835,2.039,13.333z"/>
	</g>
</g>
</svg>
